How to launch my Shinyapp • phyllispkg
…
      How to launch my Shinyapp

      app.Rmd

library(phyllispkg)

There are three data set use in this package and all are provided by the Johns Hopkins University Center for Systems Science and Engineering (JHU CSSE) and Rami Krispin and other 4 contributor provided a tidy format of the data as r package coronavirus. The package provides the map dataset, which contains longitude and latitude of 10 main countries Australia, Belgium, China, Germany, India, Italy, Japan, Spain, United Kingdom and US and different type of cases number every day.

It can be accessed via:

library(tibble)
library(phyllispkg)
map
#> # A tibble: 33,984 x 7
#>    type      date       country   cases province                      long   lat
#>    <chr>     <date>     <chr>     <int> <chr>                        <dbl> <dbl>
#>  1 confirmed 2020-01-22 Australia     0 "Australian Capital Territ… 149.   -35.5
#>  2 confirmed 2020-01-22 Australia     0 "New South Wales"           151.   -33.9
#>  3 confirmed 2020-01-22 Australia     0 "Northern Territory"        131.   -12.5
#>  4 confirmed 2020-01-22 Australia     0 "Queensland"                153.   -27.5
#>  5 confirmed 2020-01-22 Australia     0 "South Australia"           139.   -34.9
#>  6 confirmed 2020-01-22 Australia     0 "Tasmania"                  147.   -42.9
#>  7 confirmed 2020-01-22 Australia     0 "Victoria"                  145.   -37.8
#>  8 confirmed 2020-01-22 Australia     0 "Western Australia"         116.   -32.0
#>  9 confirmed 2020-01-22 Belgium       0 ""                            4.47  50.8
#> 10 confirmed 2020-01-22 China         0 "Gansu"                     104.    35.8
#> # … with 33,974 more rows
…
